{
  "executing": false,
  "numberOfIterations": 1,
  "variables": [
    {
      "name": "s",
      "lowerBound": 0.79,
      "upperBound": 0.8,
      "lMatrixExtra": false
    },
    { "name": "e", "lowerBound": 0, "upperBound": 0, "lMatrixExtra": false },
    { "name": "q", "lowerBound": 0, "upperBound": 0, "lMatrixExtra": false },
    {
      "name": "i",
      "lowerBound": 0.19,
      "upperBound": 0.2,
      "lMatrixExtra": false
    },
    { "name": "r", "lowerBound": 0, "upperBound": 0, "lMatrixExtra": false }
  ],
  "parameters": [
    { "name": "k", "lowerBound": 0.2, "upperBound": 3, "lMatrixExtra": false },
    { "name": "g", "lowerBound": 0.2, "upperBound": 0.5, "lMatrixExtra": false }
  ],
  "equations": [
    { "variableName": "s", "equation": "s - ((s*0.35*i) + g*q)*0.5" },
    { "variableName": "e", "equation": "e + ((s*0.35*i) - (k+0.3)*e)*0.5" },
    { "variableName": "q", "equation": "q + (k*e - (g+0.6)*q)*0.5" },
    { "variableName": "i", "equation": "i + (0.6*q + 0.3*e - 0.28*i)*0.5" },
    { "variableName": "r", "equation": "r + (0.28*i)*0.5" }
  ],
  "parametersMatrix": {
    "mathjs": "DenseMatrix",
    "data": [[1, 0, 0], [-1, 0, 0], [0, 1, 0], [0, -1, 0]],
    "size": [4, 3]
  },
  "tMatrix": {
    "mathjs": "DenseMatrix",
    "data": [[0, 1, 2, 3, 4]],
    "size": [1, 5]
  },
  "lMatrix": {
    "mathjs": "DenseMatrix",
    "data": [
      [1, 0, 0, 0, 0],
      [0, 1, 0, 0, 0],
      [0, 0, 1, 0, 0],
      [0, 0, 0, 1, 0],
      [0, 0, 0, 0, 1]
    ],
    "size": [5, 5]
  },
  "logicFormulas": [""],
  "cursorPositionForLogicFormula": {
    "index": 0,
    "startPosition": 0,
    "endPosition": 0
  },
  "reachability": true,
  "synthesis": false,
  "boxesMethod": true,
  "polytopesMethod": false,
  "parallelotopesMethod": false,
  "leftButtonActive": true,
  "rightButtonActive": false,
  "disabledAddVariable": false,
  "disabledAddParameter": false,
  "nameSelectedMenu": "reachability boxes",
  "printSettings": {
    "drawingSw": "octave",
    "charts": [{ "x_axis": "s", "y_axis": "i", "z_axis": "r" }]
  }
}
